<svg width="48" height="48" viewBox="0 0 48 48" fill="none" xmlns="http://www.w3.org/2000/svg">
<path fill-rule="evenodd" clip-rule="evenodd" d="M41.4098 18.154L26.8558 3.59998L20.451 10.0048L34.4234 23.978C37.6352 27.1898 37.636 32.4144 34.4254 35.6254C32.8706 37.1806 30.8034 38.0362 28.6042 38.0362H28.6022C26.4024 38.0362 24.3338 37.179 22.7776 35.6228L8.80519 21.6506L2.40039 28.0556L16.9544 42.6092C20.327 45.9818 24.7564 47.6682 29.186 47.6682C33.3556 47.6682 37.514 46.1538 40.8008 43.1652L40.8302 43.1946L41.4124 42.6124L41.9946 42.0302L41.9652 42.0008C48.1296 35.222 47.9572 24.7012 41.4098 18.154ZM18.1187 41.4448L4.72914 28.0556L8.80494 23.9794L21.6127 36.7872C23.4799 38.6544 25.9615 39.683 28.6013 39.683H28.6037C30.9663 39.683 33.2023 38.8596 34.9835 37.3484L39.6505 42.015C33.5161 47.542 24.0253 47.3498 18.1187 41.4448ZM36.148 36.1834L40.815 40.8508C46.3412 34.7158 46.1514 25.2252 40.2452 19.3186L26.8556 5.92878L22.7798 10.0046L35.5876 22.8128C39.2454 26.4706 39.4324 32.3048 36.148 36.1834Z" fill="#BD9D54"/>
<path fill-rule="evenodd" clip-rule="evenodd" d="M23.3339 2.8986C23.4947 3.0594 23.7055 3.1398 23.9161 3.1398C24.1267 3.1398 24.3375 3.0594 24.4983 2.8986C24.8199 2.577 24.8199 2.0558 24.4983 1.7342L23.0053 0.2412C22.6837 -0.0804 22.1625 -0.0804 21.8409 0.2412C21.5191 0.5628 21.5193 1.084 21.8409 1.4056L23.3339 2.8986Z" fill="#BD9D54"/>
<path fill-rule="evenodd" clip-rule="evenodd" d="M19.7342 7.69899C19.895 7.85979 20.1058 7.94019 20.3164 7.94019C20.527 7.94019 20.7378 7.85979 20.8986 7.69899C21.2202 7.37779 21.2202 6.85619 20.8986 6.53459L19.4056 5.04119C19.084 4.71959 18.5628 4.71959 18.2412 5.04119C17.9196 5.36239 17.9196 5.88399 18.2412 6.20559L19.7342 7.69899Z" fill="#BD9D54"/>
<path fill-rule="evenodd" clip-rule="evenodd" d="M18.534 2.8986C18.6948 3.0594 18.9056 3.1398 19.1162 3.1398C19.3268 3.1398 19.5376 3.0594 19.6984 2.8986C20.02 2.577 20.02 2.0558 19.6984 1.7342L18.2054 0.2412C17.8838 -0.0804 17.3626 -0.0804 17.041 0.2412C16.7194 0.5628 16.7194 1.084 17.041 1.4056L18.534 2.8986Z" fill="#BD9D54"/>
<path fill-rule="evenodd" clip-rule="evenodd" d="M5.33428 19.6986C5.49508 19.8594 5.70588 19.9398 5.91648 19.9398C6.12708 19.9398 6.33788 19.8594 6.49868 19.6986C6.82028 19.377 6.82028 18.8554 6.49868 18.5342L5.00528 17.0412C4.68368 16.7196 4.16248 16.7196 3.84088 17.0412C3.51908 17.3628 3.51928 17.8844 3.84088 18.2056L5.33428 19.6986Z" fill="#BD9D54"/>
<path fill-rule="evenodd" clip-rule="evenodd" d="M1.4056 23.0412C1.084 22.7196 0.5628 22.7196 0.2412 23.0412C-0.0804 23.3628 -0.0804 23.884 0.2412 24.2056L1.7342 25.6982C1.895 25.859 2.1058 25.9394 2.3164 25.9394C2.527 25.9394 2.7378 25.859 2.8986 25.6982C3.2202 25.3766 3.2202 24.8554 2.8986 24.5338L1.4056 23.0412Z" fill="#BD9D54"/>
<path fill-rule="evenodd" clip-rule="evenodd" d="M1.7346 20.8986C1.8954 21.0594 2.1062 21.1398 2.3168 21.1398C2.5274 21.1398 2.7382 21.0594 2.899 20.8986C3.2206 20.577 3.2206 20.0554 2.899 19.7342L1.4056 18.2412C1.084 17.9196 0.5628 17.9196 0.2412 18.2412C-0.0804 18.5628 -0.0804 19.0844 0.2412 19.4056L1.7346 20.8986Z" fill="#BD9D54"/>
</svg>
