<svg id="logo_dark" data-name="logo/dark" xmlns="http://www.w3.org/2000/svg" xmlns:xlink="http://www.w3.org/1999/xlink" width="440" height="124" viewBox="0 0 440 124">
  <defs>
    <clipPath id="clip-path">
      <path id="Clip_10" data-name="Clip 10" d="M0,122.764H439.965V0H0Z" transform="translate(0 0.236)" fill="none"/>
    </clipPath>
  </defs>
  <g id="Logo_Dark-2" data-name="Logo Dark">
    <path id="Fill_1" data-name="Fill 1" d="M0,0V7.053H8.043V31.876h7.314V7.053H23.4V0Z" transform="translate(0 1)" fill="#121125"/>
    <path id="Fill_2" data-name="Fill 2" d="M15.482,0V12.368H7.313V0H0V31.876H7.313V19.421h8.169V31.876h7.312V0Z" transform="translate(66.884 1)" fill="#121125"/>
    <path id="Fill_3" data-name="Fill 3" d="M0,0V31.876H21.238V24.822H7.313v-5.4H20.2V12.368H7.313V7.053H20.72V0Z" transform="translate(134.72 1)" fill="#121125"/>
    <path id="Fill_4" data-name="Fill 4" d="M15.483,0V12.368H7.314V0H0V31.876H7.314V19.422h8.169V31.876H22.8V0Z" transform="translate(0.462 67.948)" fill="#121125"/>
    <g id="Group_69" data-name="Group 69" transform="translate(0 0.764)">
      <path id="Fill_5" data-name="Fill 5" d="M11.959,33.087a11.5,11.5,0,0,1-8.78-3.411C1.069,27.431,0,24.147,0,19.917V13.17C0,9.061,1.067,5.809,3.172,3.5A11.352,11.352,0,0,1,11.959,0a11.353,11.353,0,0,1,8.787,3.5c2.105,2.306,3.173,5.558,3.173,9.665v6.747c0,4.228-1.07,7.511-3.18,9.759A11.5,11.5,0,0,1,11.959,33.087Zm0-26.293a4.617,4.617,0,0,0-2.138.45,3.871,3.871,0,0,0-1.4,1.2,5.359,5.359,0,0,0-.823,1.884,10.614,10.614,0,0,0-.28,2.493v7.437a13.04,13.04,0,0,0,.241,2.606,4.86,4.86,0,0,0,.777,1.858A3.514,3.514,0,0,0,9.71,25.875a5.253,5.253,0,0,0,2.249.418,5.256,5.256,0,0,0,2.248-.418,3.524,3.524,0,0,0,1.38-1.149,4.885,4.885,0,0,0,.776-1.858,13.034,13.034,0,0,0,.242-2.606V12.825a10.658,10.658,0,0,0-.28-2.493A5.423,5.423,0,0,0,15.5,8.447a3.878,3.878,0,0,0-1.4-1.2A4.6,4.6,0,0,0,11.959,6.794Z" transform="translate(66.323 51.546)" fill="#121125"/>
      <path id="Fill_7" data-name="Fill 7" d="M7.313,31.876H0V0H12.651a10.916,10.916,0,0,1,4.387.824A9.361,9.361,0,0,1,20.18,3a9.157,9.157,0,0,1,1.895,3.079,10.072,10.072,0,0,1,.634,3.5v1.038a10.541,10.541,0,0,1-.631,3.58,9.565,9.565,0,0,1-1.888,3.162,9.309,9.309,0,0,1-3.144,2.249,10.648,10.648,0,0,1-4.394.85H7.313V31.875Zm0-24.823v6.353h4.775a3.41,3.41,0,0,0,2.455-.821,2.717,2.717,0,0,0,.851-2.1V9.97a2.722,2.722,0,0,0-.851-2.1,3.413,3.413,0,0,0-2.455-.82Z" transform="translate(134.414 67.184)" fill="#121125"/>
      <path id="Clip_10-2" data-name="Clip 10" d="M0,122.764H439.965V0H0Z" transform="translate(0 0.236)" fill="none"/>
      <g id="Group_69-2" data-name="Group 69" clip-path="url(#clip-path)">
        <path id="Fill_9" data-name="Fill 9" d="M0,7.3H22.8V0H0Z" transform="translate(66.882 115.699)" fill="#121125"/>
        <path id="Fill_11" data-name="Fill 11" d="M2.327,8.613H.161C.024,8.613,0,8.6,0,8.451V.161C0,.012.024,0,.161,0h1.98A2.248,2.248,0,0,1,4.617,2.2,1.973,1.973,0,0,1,3.609,4.095a2.069,2.069,0,0,1,1.22,2.016A2.268,2.268,0,0,1,2.327,8.613ZM.871,4.493V7.742H2.315A1.5,1.5,0,0,0,3.958,6.111,1.514,1.514,0,0,0,2.427,4.493Zm0-3.622V3.635h1.27c1.065,0,1.6-.482,1.6-1.432,0-.92-.813-1.332-1.618-1.332Z" transform="translate(203.982 89.171)" fill="#121125"/>
        <path id="Fill_12" data-name="Fill 12" d="M2.851,4.27V8.452c0,.149-.025.162-.162.162H2.141c-.137,0-.162-.013-.162-.162V4.27L.025.15A.19.19,0,0,1,0,.075C0,.025.05,0,.137,0H.76C.921,0,.934.012.984.137l1.083,2.39A3.979,3.979,0,0,1,2.415,3.7a3.948,3.948,0,0,1,.349-1.17L3.847.137C3.9.012,3.909,0,4.071,0h.622c.087,0,.137.025.137.075A.19.19,0,0,1,4.8.15Z" transform="translate(209.421 89.171)" fill="#121125"/>
        <path id="Fill_13" data-name="Fill 13" d="M.159,11.883,0,11.769A8.317,8.317,0,0,1,1.31,9.91,2.439,2.439,0,0,1,3,9.069a3.6,3.6,0,0,1,2.724,1.669,2.416,2.416,0,0,0,.323-1.282,3.652,3.652,0,0,0-.237-1.271,2.591,2.591,0,0,0-.7-1.044A1.741,1.741,0,0,0,3.939,6.71a1.856,1.856,0,0,0-1.157.4,2.554,2.554,0,0,0-.744.949A5.4,5.4,0,0,1,.624,6.654,3.338,3.338,0,0,1,.068,4.785a3.222,3.222,0,0,1,.5-1.756A5.044,5.044,0,0,1,1.74,1.783c.459-.348.908-.662,1.343-.942A4.772,4.772,0,0,0,4.1,0,5.8,5.8,0,0,0,5.233.9a2.584,2.584,0,0,0,1.293.314,2.57,2.57,0,0,0,.66-.077A2.641,2.641,0,0,0,7.83.869,3.023,3.023,0,0,1,6.761,2.554,2.747,2.747,0,0,1,5.107,3.2a2.661,2.661,0,0,1-1.361-.472A7.554,7.554,0,0,1,2.472,1.694a2.873,2.873,0,0,0-.114.916,3.612,3.612,0,0,0,.506,2.11,1.934,1.934,0,0,0,1.693.752,2.27,2.27,0,0,0,1.175-.347,1.779,1.779,0,0,0,.748-.844A3.965,3.965,0,0,1,7.838,5.562a3.477,3.477,0,0,1,.634,1.881,3.565,3.565,0,0,1-.731,2.231A7.487,7.487,0,0,1,6.1,11.154,13.806,13.806,0,0,0,4.374,12.5a4.01,4.01,0,0,0-2.588-1.19,2.656,2.656,0,0,0-1.627.572" transform="translate(232.947 87.346)" fill="#121125"/>
        <path id="Fill_14" data-name="Fill 14" d="M.367,16.559H0A5.919,5.919,0,0,1,.6,14.6a5.293,5.293,0,0,1,.912-1.233c.272-.254.864-.682.864-.682s.5-.18.694-1.668a3.73,3.73,0,0,0-.258-1.853c-.241-.611-.477-1.252-.712-1.917a4.755,4.755,0,0,1-.2-2.167,3.3,3.3,0,0,1,.562-1.373A8.992,8.992,0,0,1,3.907,2.141Q4.891,1.261,6.554,0a4.818,4.818,0,0,0,.968,1.027,3,3,0,0,0,3.527-.31l.236.271a5.742,5.742,0,0,1-.867,1.237,4.011,4.011,0,0,1-1.2.908,4.692,4.692,0,0,1-3.447.12,4.319,4.319,0,0,1-1.213-.924c-.035,0-.073.034-.11.1a.574.574,0,0,0-.075.194A2.779,2.779,0,0,0,4.71,4.06c.262.558.547,1.186.849,1.888A7.879,7.879,0,0,1,6.2,8.8c.23-.636.445-1.177.647-1.616a3.049,3.049,0,0,1,.977-1.163A2.07,2.07,0,0,1,9.35,5.61a2.634,2.634,0,0,1,1.5.912c-.293.35-.6.742-.91,1.177a14.926,14.926,0,0,0-.888,1.389c-.192-.179-.4-.356-.626-.528a1.786,1.786,0,0,0-.743-.339.925.925,0,0,0-.922.381,18.13,18.13,0,0,0-.991,1.591,4.745,4.745,0,0,1-1.116,1.434,4.032,4.032,0,0,1-1.205.733,4.817,4.817,0,0,1,.726-.07,4.644,4.644,0,0,1,1.919.465q.882.429,1.669.863a3.576,3.576,0,0,0,1.553.464,2.24,2.24,0,0,0,1.487-.434,2.654,2.654,0,0,0,.784-1.794h.436a6.2,6.2,0,0,1-.753,3.066,4.06,4.06,0,0,1-1.713,1.61A4.674,4.674,0,0,1,7.505,17a5.011,5.011,0,0,1-2-.435q-.857-.4-1.61-.807a3.664,3.664,0,0,0-1.6-.434A1.782,1.782,0,0,0,.367,16.559" transform="translate(220.817 82.966)" fill="#121125"/>
        <path id="Fill_15" data-name="Fill 15" d="M4.054,12.486q-.016,1.081.687,1.1a1.193,1.193,0,0,0,.8-.388l.231.32c-.452.373-.917.783-1.39,1.229s-.917.881-1.335,1.312A14.325,14.325,0,0,0,1.67,14.966a7.808,7.808,0,0,0-1.532-.832v-.252a1.106,1.106,0,0,0,.894-.6,4.106,4.106,0,0,0,.206-1.625V3.808A5.175,5.175,0,0,0,.878,1.9,2.068,2.068,0,0,0,0,.784L.207.441A2.021,2.021,0,0,0,.733.626a3.606,3.606,0,0,0,.733.067,5.185,5.185,0,0,0,1.719-.3C3.51.257,3.8.125,4.057,0" transform="translate(272.49 83.905)" fill="#121125"/>
        <path id="Fill_16" data-name="Fill 16" d="M7.373,12.5h0a5.061,5.061,0,0,1-1.23-1.177A3.3,3.3,0,0,1,5.7,9.96a14.116,14.116,0,0,0-1.869,1.216,7.566,7.566,0,0,0-1.336,1.3,5.021,5.021,0,0,1-1.44-1.093A3.926,3.926,0,0,1,.249,9.664,13.583,13.583,0,0,1,0,6.707,9.351,9.351,0,0,1,.227,4.495a3.665,3.665,0,0,1,.9-1.749,6.443,6.443,0,0,1,1.2-.839c.5-.286,1.017-.589,1.525-.9A5.026,5.026,0,0,0,5.06,0,22.286,22.286,0,0,0,7.4,1.41c.4.206.751.371,1.073.507V5.929l0,3.367a1.66,1.66,0,0,0,.142.748.5.5,0,0,0,.453.282,1.5,1.5,0,0,0,.71-.252v.436c-.4.255-.813.554-1.237.891a9.812,9.812,0,0,0-1.166,1.1ZM3.274,1.968h0c-.119.011-.206.191-.258.535A10.3,10.3,0,0,0,2.921,3.79c-.01.457-.015.948-.015,1.544v1.19a11.276,11.276,0,0,0,.224,2.74c.16.6.475.9.938.9h.006a3.019,3.019,0,0,0,1.6-.709V3.342A12.946,12.946,0,0,1,4.021,2.38a2.013,2.013,0,0,0-.747-.41Z" transform="translate(278.929 87.461)" fill="#121125"/>
        <path id="Fill_17" data-name="Fill 17" d="M4.054,12.486q-.02,1.081.687,1.1a1.2,1.2,0,0,0,.8-.388l.23.32q-.68.56-1.388,1.229T3.047,16.057a14.11,14.11,0,0,0-1.379-1.091,7.737,7.737,0,0,0-1.53-.832v-.252a1.1,1.1,0,0,0,.894-.6,4.106,4.106,0,0,0,.206-1.625V3.808A5.134,5.134,0,0,0,.876,1.9,2.057,2.057,0,0,0,0,.784L.207.441A2,2,0,0,0,.734.626a3.6,3.6,0,0,0,.732.067,5.174,5.174,0,0,0,1.717-.3Q3.673.189,4.058,0" transform="translate(266.19 83.905)" fill="#121125"/>
        <path id="Fill_18" data-name="Fill 18" d="M4.121,12.617h0a10.957,10.957,0,0,1-1.863-.98A4.818,4.818,0,0,1,.669,9.79,7.885,7.885,0,0,1,0,6.321,8.266,8.266,0,0,1,.329,3.758,3.71,3.71,0,0,1,1.3,2.189,5.933,5.933,0,0,1,2.862,1.168L5.265,0l2.84,4.649L2.977,7.627A3.317,3.317,0,0,0,4.01,9.4a2.2,2.2,0,0,0,1.36.519h.054a2.474,2.474,0,0,0,1.095-.269,10.046,10.046,0,0,0,1.426-.923l.319.388c-.843.632-1.6,1.225-2.251,1.762a25.264,25.264,0,0,0-1.891,1.743ZM3.159,1.536a1.675,1.675,0,0,0-.263.855,12.683,12.683,0,0,0-.059,1.387V6.755L5.289,5.336Z" transform="translate(258.01 87.368)" fill="#121125"/>
        <path id="Fill_19" data-name="Fill 19" d="M4.488,5.771v3.32a.685.685,0,0,0,.254.428,2.661,2.661,0,0,0,.516.388,1.131,1.131,0,0,0,.421.17q.492-.009,1.808-1.214V9.64c-.548.445-1.071.9-1.573,1.366s-1.061,1.018-1.678,1.657a15.9,15.9,0,0,0-1.777-1.308,6.865,6.865,0,0,0-1.8-.844v-.228a1.2,1.2,0,0,0,.816-.611A2.571,2.571,0,0,0,1.7,8.5V3.94a2.08,2.08,0,0,0-.228-1.054A.665.665,0,0,0,.894,2.52,1.251,1.251,0,0,0,0,3.071V2.382L2.314.07A6.143,6.143,0,0,1,3.621,1a3.733,3.733,0,0,1,.914,1.593A4.789,4.789,0,0,1,5.511.866,2.713,2.713,0,0,1,6.777,0L8.54,2.406,6.527,4.282,5.06,2.473A5.405,5.405,0,0,0,4.6,4.1a11.983,11.983,0,0,0-.114,1.674" transform="translate(249.242 87.276)" fill="#121125"/>
        <path id="Fill_20" data-name="Fill 20" d="M0,6.595V5.565a4.608,4.608,0,0,0,2.192-1.9A12.538,12.538,0,0,0,3.525,0h.916V5.061h2.2V6.572h-2.2v5.839a1.787,1.787,0,0,0,.239,1,.867.867,0,0,0,.77.378,1.615,1.615,0,0,0,1.076-.572l.206.572Q5.129,15,3.6,16.349a13.428,13.428,0,0,0-1.379-1.184,5.321,5.321,0,0,0-1.6-.807V14.1a1.01,1.01,0,0,0,.834-.558,3.962,3.962,0,0,0,.2-1.571V6.595" transform="translate(241.724 83.635)" fill="#121125"/>
        <path id="Fill_21" data-name="Fill 21" d="M9.018,11.249a2.334,2.334,0,0,1-2.169-.909A7.137,7.137,0,0,1,5.737,8.433c.129.18.215.293.759.293,1.045,0,2.687-1.075,4.067-1.075a2.959,2.959,0,0,1,2.2.737,8.255,8.255,0,0,1,1.44,2.369,1.212,1.212,0,0,0-1-.724,2.53,2.53,0,0,0-1.14.261c0,2.522-.175,3.24.32,3.57.172.114.6.252,1.2-.282l.22.318a7.991,7.991,0,0,1-6.331,3.116,7.146,7.146,0,0,1-4.886-1.853A7.149,7.149,0,0,1,.628,12.351,10.562,10.562,0,0,1,.02,7.837,9.5,9.5,0,0,1,1.081,4.069,8.614,8.614,0,0,1,3.473,1.163,5.419,5.419,0,0,1,6.722,0,4.745,4.745,0,0,1,9.14.642,15.563,15.563,0,0,1,10.8,1.831a2.571,2.571,0,0,0,1.5.64,1.756,1.756,0,0,0,.925-.226,1.906,1.906,0,0,0,.745-.949l.263.163a4.7,4.7,0,0,1-.773,1.748,4.565,4.565,0,0,1-1.412,1.3,3.645,3.645,0,0,1-1.841.51,3.809,3.809,0,0,1-1.5-.329,13.022,13.022,0,0,1-1.463-.943,6.79,6.79,0,0,0-1.217-.714,3.747,3.747,0,0,0-1.5-.321,2.677,2.677,0,0,0-1.745.64A4.124,4.124,0,0,0,1.672,4.906,5.974,5.974,0,0,0,1.22,6.848a6.051,6.051,0,0,0,.691,3.313,6.936,6.936,0,0,0,1.92,2.16C7.7,15.193,9.5,14.483,9.5,14.483l-.089-3.24" transform="translate(293.098 82.764)" fill="#121125"/>
        <path id="Fill_22" data-name="Fill 22" d="M6.406,9.112l.322.322c-.647.517-1.262,1.033-1.845,1.556S3.69,12.064,3.052,12.649c-.4-.225-.728-.428-.989-.6a4.667,4.667,0,0,1-.676-.553,4.2,4.2,0,0,1-.894-1.52A8.685,8.685,0,0,1,0,6.96,12.457,12.457,0,0,1,.252,4.141a3.434,3.434,0,0,1,.858-1.69,8.663,8.663,0,0,1,.883-.687L3.271.841A8.182,8.182,0,0,0,4.278,0a4.3,4.3,0,0,0,.778.916,1.329,1.329,0,0,0,.8.379c.261.006.478-.17.646-.534l.278.163A12.486,12.486,0,0,1,6.36,2.229a2.875,2.875,0,0,1-.671,1.045A1.65,1.65,0,0,1,4.532,3.7a1.16,1.16,0,0,1-.786-.46A3.679,3.679,0,0,1,3.075,2.1a10.617,10.617,0,0,0-.142,1.551q-.023.923-.019,1.9v.717a5.486,5.486,0,0,0,.61,2.886,1.464,1.464,0,0,0,1.216.791,2.644,2.644,0,0,0,1.666-.832" transform="translate(331.216 87.191)" fill="#121125"/>
        <path id="Fill_23" data-name="Fill 23" d="M1.919,0A3.214,3.214,0,0,1,3.3.283c.361.181.551.4.562.665a1.523,1.523,0,0,1-.339.747,9.5,9.5,0,0,1-.765.927l-.816.87-.749-.768a9.4,9.4,0,0,1-.812-.953A1.661,1.661,0,0,1,0,.925c.029-.28.243-.5.648-.67A3.368,3.368,0,0,1,1.919,0" transform="translate(338.943 83.06)" fill="#121125"/>
        <path id="Fill_24" data-name="Fill 24" d="M4.592,1.542,4.577,9.088a1.674,1.674,0,0,0,.153.724.549.549,0,0,0,.5.341,1.363,1.363,0,0,0,.9-.626l.345.347L3.63,12.719a5.124,5.124,0,0,1-1.448-1.163,2.238,2.238,0,0,1-.424-1.428V4.348A3.546,3.546,0,0,0,1.61,3.2c-.1-.277-.258-.416-.476-.422s-.49.154-.856.508L0,2.937c.571-.5,1.105-.962,1.6-1.408A16.538,16.538,0,0,0,3.075,0,9.005,9.005,0,0,0,4.226,1.243c.116.1.232.195.366.3" transform="translate(337.826 87.199)" fill="#121125"/>
        <path id="Fill_25" data-name="Fill 25" d="M1.92,0A3.2,3.2,0,0,1,3.3.283q.544.271.563.665a1.538,1.538,0,0,1-.338.747,9.8,9.8,0,0,1-.765.927l-.816.87-.751-.768a9.388,9.388,0,0,1-.811-.953A1.678,1.678,0,0,1,0,.925c.026-.28.245-.5.649-.67A3.36,3.36,0,0,1,1.92,0" transform="translate(325.245 83.06)" fill="#121125"/>
        <path id="Fill_26" data-name="Fill 26" d="M4.591,1.542,4.578,9.088a1.631,1.631,0,0,0,.151.724.55.55,0,0,0,.5.341,1.362,1.362,0,0,0,.9-.626l.347.347L3.63,12.719a5.124,5.124,0,0,1-1.448-1.163,2.226,2.226,0,0,1-.424-1.428V4.348A3.574,3.574,0,0,0,1.61,3.2c-.1-.277-.258-.416-.478-.422-.2-.015-.49.154-.854.508L0,2.937c.572-.5,1.106-.962,1.6-1.408A16.807,16.807,0,0,0,3.076,0,8.869,8.869,0,0,0,4.224,1.243c.118.1.232.195.367.3" transform="translate(324.129 87.199)" fill="#121125"/>
        <path id="Fill_27" data-name="Fill 27" d="M7.447,12.626h0A5.142,5.142,0,0,1,6.2,11.439a3.36,3.36,0,0,1-.445-1.378A14.519,14.519,0,0,0,3.87,11.288,7.561,7.561,0,0,0,2.521,12.6a4.969,4.969,0,0,1-1.456-1.1A3.988,3.988,0,0,1,.251,9.762,13.831,13.831,0,0,1,0,6.776,9.575,9.575,0,0,1,.227,4.541a3.736,3.736,0,0,1,.906-1.768,6.608,6.608,0,0,1,1.21-.848c.455-.254.945-.543,1.543-.908A5.025,5.025,0,0,0,5.11,0,22.4,22.4,0,0,0,7.47,1.426c.357.188.721.36,1.082.511V5.989l.005,3.4a1.651,1.651,0,0,0,.143.755.505.505,0,0,0,.456.286,1.479,1.479,0,0,0,.718-.256v.439a14.406,14.406,0,0,0-1.247.9,10.175,10.175,0,0,0-1.18,1.109ZM3.307,1.989h0c-.121.014-.209.2-.261.544a10.544,10.544,0,0,0-.095,1.3c-.009.458-.017,1-.014,1.561v1.2a11.253,11.253,0,0,0,.225,2.768c.162.6.481.91.949.91a3.042,3.042,0,0,0,1.625-.717V3.376a12.9,12.9,0,0,1-1.674-.97A2.034,2.034,0,0,0,3.307,1.989Z" transform="translate(345.035 87.199)" fill="#121125"/>
        <path id="Fill_28" data-name="Fill 28" d="M7.448,12.626h0a5.128,5.128,0,0,1-1.242-1.187,3.329,3.329,0,0,1-.445-1.378,14.411,14.411,0,0,0-1.887,1.227A7.55,7.55,0,0,0,2.523,12.6a4.939,4.939,0,0,1-1.454-1.1A3.964,3.964,0,0,1,.255,9.762,13.741,13.741,0,0,1,0,6.776a9.583,9.583,0,0,1,.23-2.235,3.7,3.7,0,0,1,.905-1.768,6.361,6.361,0,0,1,1.21-.848c.468-.262.971-.559,1.54-.908A5.022,5.022,0,0,0,5.114,0,22.14,22.14,0,0,0,7.472,1.426c.361.189.725.361,1.084.511V5.989l0,3.4a1.653,1.653,0,0,0,.144.755.5.5,0,0,0,.455.286,1.478,1.478,0,0,0,.717-.256v.439a15.336,15.336,0,0,0-1.25.9,10.364,10.364,0,0,0-1.177,1.109ZM3.309,1.989h0c-.121.014-.208.2-.26.544a10.025,10.025,0,0,0-.1,1.3c-.011.454-.015.935-.014,1.561v1.2a11.249,11.249,0,0,0,.225,2.768c.162.6.482.91.951.91a3.041,3.041,0,0,0,1.623-.717V3.376a13.032,13.032,0,0,1-1.674-.97A1.978,1.978,0,0,0,3.309,1.989Z" transform="translate(308.085 87.199)" fill="#121125"/>
        <path id="Fill_29" data-name="Fill 29" d="M4.093,12.611c-.011.728.218,1.1.693,1.108a1.21,1.21,0,0,0,.811-.391l.23.324c-.46.375-.925.79-1.4,1.239s-.928.892-1.35,1.326a14.24,14.24,0,0,0-1.391-1.1,7.847,7.847,0,0,0-1.546-.84v-.254a1.11,1.11,0,0,0,.9-.6,4.081,4.081,0,0,0,.21-1.644V3.845A5.205,5.205,0,0,0,.883,1.92,2.071,2.071,0,0,0,0,.794L.207.447A2.035,2.035,0,0,0,.74.631,3.5,3.5,0,0,0,1.479.7,5.263,5.263,0,0,0,3.213.4C3.544.258,3.839.127,4.1,0" transform="translate(318.6 83.608)" fill="#121125"/>
        <path id="Fill_30" data-name="Fill 30" d="M4.265,9.8h0L2.821,7.315H0L1.4,4.9,0,2.481H2.821L4.265,0,5.711,2.481H8.533L7.134,4.9l1.4,2.417H5.711L4.266,9.8Zm0-4.9V9.319L5.575,7.071,4.267,4.9l3.846,2.17L6.856,4.9H4.266L8.113,2.726H5.575L4.267,4.895l0-4.418L2.957,2.726,4.264,4.9.419,2.726,1.676,4.9H4.264L.419,7.071H2.957L4.263,4.9Z" transform="translate(363.698 86.751)" fill="#121125"/>
        <path id="Fill_31" data-name="Fill 31" d="M6.048,12.1A6.058,6.058,0,0,1,.762,8.989H4.271l1.777,2.984L7.826,8.989h3.509L9.594,6.049,11.336,3.11a6.056,6.056,0,0,1,0,5.877l0,0h0A6.059,6.059,0,0,1,6.048,12.1ZM.761,8.99v0a6.059,6.059,0,0,1,0-5.88L2.5,6.049.762,8.988Zm3.51-5.882H.762a6.05,6.05,0,0,1,10.572,0H7.826L6.048.125,4.271,3.108Z" transform="translate(361.915 85.557)" fill="#121125"/>
        <path id="Fill_32" data-name="Fill 32" d="M8.577,17.157a8.578,8.578,0,1,1,8.578-8.579A8.588,8.588,0,0,1,8.577,17.157Zm0-16.222a7.643,7.643,0,1,0,7.644,7.643A7.652,7.652,0,0,0,8.577.935Z" transform="translate(359.386 83.071)" fill="#121125"/>
        <path id="Fill_33" data-name="Fill 33" d="M1.172,14.224h-.9C.04,14.224,0,14.2,0,13.956V.267C0,.02.04,0,.267,0H5.015A2.882,2.882,0,0,1,8.057,3.166V4.46a3.2,3.2,0,0,1-.909,2.418,3.115,3.115,0,0,1-2.173.768H1.438v6.31C1.438,14.2,1.4,14.224,1.172,14.224ZM1.438,1.439V6.207h3.33a1.658,1.658,0,0,0,1.85-1.89V3.33a1.658,1.658,0,0,0-1.85-1.891Z" transform="translate(203.989 0.95)" fill="#121125"/>
        <path id="Fill_34" data-name="Fill 34" d="M8.1,14.224H7.05c-.265,0-.286-.038-.389-.223L3.514,7.667H1.438v6.289c0,.248-.04.267-.266.267h-.9C.04,14.224,0,14.2,0,13.956V.267C0,.02.04,0,.267,0H5.015A2.882,2.882,0,0,1,8.057,3.166V4.46a2.861,2.861,0,0,1-2.98,3.186l3.1,6.124.009.019c.1.191.115.231.115.29C8.3,14.171,8.229,14.224,8.1,14.224ZM1.438,1.439V6.207h3.33a1.658,1.658,0,0,0,1.85-1.89V3.33a1.658,1.658,0,0,0-1.85-1.891Z" transform="translate(220.759 0.95)" fill="#121125"/>
        <path id="Fill_35" data-name="Fill 35" d="M4.112,14.572a4.32,4.32,0,0,1-3-1.015A3.751,3.751,0,0,1,0,10.708V3.8C0,1.457,1.576,0,4.112,0S8.2,1.457,8.2,3.8v6.907a3.76,3.76,0,0,1-1.112,2.849A4.279,4.279,0,0,1,4.112,14.572Zm0-13.133A2.444,2.444,0,0,0,1.439,4.09v6.393a2.444,2.444,0,0,0,2.673,2.651,2.431,2.431,0,0,0,2.65-2.651V4.09A2.431,2.431,0,0,0,4.112,1.439Z" transform="translate(238.125 0.827)" fill="#121125"/>
        <path id="Fill_36" data-name="Fill 36" d="M8.058,12.681a5.112,5.112,0,0,1-3.946,1.891C1.6,14.572,0,13.154,0,10.708V3.8C0,1.418,1.6,0,4.112,0A4.469,4.469,0,0,1,7.688,1.685c.1.123.1.164,0,.246l-.822.72c-.123.1-.144.123-.268-.02A2.832,2.832,0,0,0,4.112,1.438,2.441,2.441,0,0,0,1.439,4.09v6.392a2.44,2.44,0,0,0,2.673,2.651,3.623,3.623,0,0,0,2.651-1.171V8.119H4.378c-.225,0-.266-.021-.266-.268v-.9c0-.247.041-.267.266-.267H7.934c.227,0,.268.02.268.267V12.27a.488.488,0,0,1-.144.411" transform="translate(256.148 0.828)" fill="#121125"/>
        <path id="Fill_37" data-name="Fill 37" d="M8.1,14.224H7.05c-.265,0-.286-.038-.389-.223L3.514,7.667H1.438v6.289c0,.248-.04.267-.266.267h-.9C.04,14.224,0,14.2,0,13.956V.267C0,.02.04,0,.267,0H5.015A2.882,2.882,0,0,1,8.057,3.166V4.46a2.861,2.861,0,0,1-2.98,3.186l3.1,6.124.009.019c.1.191.115.231.115.29C8.3,14.171,8.229,14.224,8.1,14.224ZM1.438,1.439V6.207h3.33a1.658,1.658,0,0,0,1.85-1.89V3.33a1.658,1.658,0,0,0-1.85-1.891Z" transform="translate(274.173 0.95)" fill="#121125"/>
        <path id="Fill_38" data-name="Fill 38" d="M10.051,14.224H8.942c-.185,0-.247,0-.31-.205l-1.4-4.686H2.9L1.522,14.018c-.062.205-.124.205-.309.205H.1c-.063,0-.1,0-.1-.041a.278.278,0,0,1,.021-.1L4.07.144C4.111,0,4.13,0,4.255,0H5.941c.124,0,.143,0,.185.144L10.133,14.08a.289.289,0,0,1,.02.1C10.153,14.224,10.112,14.224,10.051,14.224ZM5.117,1.028h0a20.6,20.6,0,0,1-.554,2.364l-1.275,4.5h3.6l-1.254-4.5a13.885,13.885,0,0,1-.514-2.364Z" transform="translate(289.854 0.95)" fill="#121125"/>
        <path id="Fill_39" data-name="Fill 39" d="M10.42,14.223H9.475c-.144,0-.2-.041-.2-.206L8.817,3.247c-.041-.863.041-2.137.062-2.466-.062.329-.227.966-.329,1.295L6.166,9.907c-.061.185-.124.185-.267.185H4.727c-.144,0-.205,0-.267-.185L2.075,2.076c-.1-.329-.266-.966-.348-1.295a18.625,18.625,0,0,1,.082,2.466l-.452,10.77c0,.165-.062.206-.207.206H.2c-.143,0-.2-.041-.2-.206L.616.164C.616.061.657,0,.76,0H2.672a.164.164,0,0,1,.185.144L4.542,5.817A22.626,22.626,0,0,1,5.3,9.126a25.433,25.433,0,0,1,.78-3.309L7.769.144A.164.164,0,0,1,7.954,0H9.865c.1,0,.144.061.144.164l.617,13.853c0,.165-.061.206-.206.206" transform="translate(308.249 0.951)" fill="#121125"/>
        <path id="Fill_40" data-name="Fill 40" d="M10.051,14.224H8.942c-.185,0-.247,0-.31-.205l-1.4-4.686H2.9L1.522,14.018c-.062.205-.124.205-.309.205H.1c-.063,0-.1,0-.1-.041a.278.278,0,0,1,.021-.1L4.07.144C4.111,0,4.13,0,4.255,0H5.941c.124,0,.143,0,.185.144L10.133,14.08a.289.289,0,0,1,.02.1C10.153,14.224,10.112,14.224,10.051,14.224ZM5.117,1.028h0a20.6,20.6,0,0,1-.554,2.364l-1.275,4.5h3.6l-1.254-4.5a13.885,13.885,0,0,1-.514-2.364Z" transform="translate(327.073 0.95)" fill="#121125"/>
        <path id="Fill_41" data-name="Fill 41" d="M3.8,14.223H.267C.04,14.223,0,14.2,0,13.956V.267C0,.02.04,0,.267,0H3.8A4.279,4.279,0,0,1,6.78,1.015,3.76,3.76,0,0,1,7.892,3.864v6.5A3.76,3.76,0,0,1,6.78,13.208,4.279,4.279,0,0,1,3.8,14.223ZM1.5,1.439V12.784H3.8a2.431,2.431,0,0,0,2.651-2.651V4.09A2.431,2.431,0,0,0,3.8,1.439Z" transform="translate(358.867 0.951)" fill="#121125"/>
        <path id="Fill_42" data-name="Fill 42" d="M7.05,14.223H.268C.041,14.223,0,14.2,0,13.956V.267C0,.02.041,0,.268,0H6.659c.227,0,.268.02.268.267v.9c0,.247-.041.268-.329.268H1.439V5.755H6.557c.226,0,.267.02.267.267v.905c0,.246-.041.267-.267.267h-5.1v5.59H7.05c.227,0,.268.021.268.268v.9c0,.246-.041.267-.268.267" transform="translate(376.583 0.951)" fill="#121125"/>
        <path id="Fill_43" data-name="Fill 43" d="M8.078,14.942H.267c-.226,0-.267-.021-.267-.267V.267C0,.02.041,0,.267,0H7.995c.309,0,.35.041.35.287V2.2c0,.246-.041.267-.267.267H2.487V5.919h5.1c.226,0,.267.021.267.267V8.2c0,.247-.041.267-.267.267h-5.1v4.009H8.078c.226,0,.267.02.267.267v1.932c0,.246-.041.267-.267.267" transform="translate(203.557 24.895)" fill="#121125"/>
        <path id="Fill_44" data-name="Fill 44" d="M11.818,14.942H9.783c-.144,0-.2-.041-.2-.206L9.392,7.152c-.041-1.459.165-3.9.227-4.789a31.177,31.177,0,0,1-.8,3.433l-1.4,5.035c-.062.185-.123.185-.268.185H4.871c-.144,0-.2,0-.268-.185L3.206,5.8a32.272,32.272,0,0,1-.8-3.433c.062.884.288,3.33.247,4.768l-.2,7.605c0,.165-.063.206-.206.206H.2c-.143,0-.2-.041-.2-.206L.472.164C.472.061.513,0,.616,0H3.74a.163.163,0,0,1,.185.144L5.59,5.8a13.8,13.8,0,0,1,.432,3.473A13.308,13.308,0,0,1,6.433,5.8L8.1.144A.165.165,0,0,1,8.283,0h3.124c.1,0,.143.061.143.164l.473,14.572c0,.165-.061.206-.2.206" transform="translate(220.328 24.895)" fill="#121125"/>
        <path id="Fill_45" data-name="Fill 45" d="M2.2,14.942H.268c-.228,0-.268-.02-.268-.266V.267C0,.02.041,0,.268,0H4.687A4.659,4.659,0,0,1,7.693,1.009,4.32,4.32,0,0,1,9.126,4.5,4.461,4.461,0,0,1,7.731,7.99,4.6,4.6,0,0,1,4.687,9.043H2.467v5.632C2.467,14.922,2.427,14.942,2.2,14.942ZM2.467,2.466v4.09h2.22c1.35,0,1.952-.634,1.952-2.055,0-1.369-.639-2.035-1.952-2.035Z" transform="translate(241.249 24.894)" fill="#121125"/>
        <path id="Fill_46" data-name="Fill 46" d="M9.435,14.942h-2.2c-.266,0-.287-.038-.388-.221l0-.005-2.8-5.673H2.467v5.632c0,.247-.04.266-.267.266H.268c-.228,0-.268-.02-.268-.266V.267C0,.02.041,0,.268,0H4.687A4.648,4.648,0,0,1,7.714,1,4.36,4.36,0,0,1,9.106,4.5c0,2.094-.837,3.5-2.488,4.172l3,6.022,0,.01a.321.321,0,0,1,.036.093C9.661,14.885,9.572,14.942,9.435,14.942ZM2.467,2.466v4.09h2.22C6.033,6.556,6.66,5.9,6.66,4.5A1.808,1.808,0,0,0,4.687,2.466Z" transform="translate(258.861 24.894)" fill="#121125"/>
        <path id="Fill_47" data-name="Fill 47" d="M8.078,14.942H.267c-.226,0-.267-.021-.267-.267V.267C0,.02.041,0,.267,0H7.995c.309,0,.35.041.35.287V2.2c0,.246-.041.267-.267.267H2.487V5.919h5.1c.226,0,.267.021.267.267V8.2c0,.247-.041.267-.267.267h-5.1v4.009H8.078c.226,0,.267.02.267.267v1.932c0,.246-.041.267-.267.267" transform="translate(276.516 24.895)" fill="#121125"/>
        <path id="Fill_48" data-name="Fill 48" d="M9.5,14.942H7.461c-.1,0-.144-.021-.2-.144l-3.6-7.05A15.273,15.273,0,0,1,2.076,3.391a27.588,27.588,0,0,1,.37,4.44l.021,6.844c0,.246-.041.267-.268.267H.267c-.226,0-.267-.021-.267-.267V.144C0,.061.02,0,.185,0H2.344c.1,0,.143.02.2.144l3.226,6.1a9.912,9.912,0,0,1,1.419,3.946L7.215.267C7.215.02,7.256,0,7.481,0H9.414c.226,0,.267.02.267.267V14.8c0,.082-.021.144-.185.144" transform="translate(293.389 24.895)" fill="#121125"/>
        <path id="Fill_49" data-name="Fill 49" d="M4.522,14.942H.268c-.228,0-.268-.02-.268-.266V.267C0,.02.041,0,.268,0H4.522a4.709,4.709,0,0,1,3,.986A4.162,4.162,0,0,1,8.942,4.378v6.187a4.161,4.161,0,0,1-1.416,3.391A4.709,4.709,0,0,1,4.522,14.942ZM2.467,2.466v10.01H4.522a1.713,1.713,0,0,0,1.953-1.911V4.378A1.713,1.713,0,0,0,4.522,2.466Z" transform="translate(312.049 24.894)" fill="#121125"/>
        <path id="Fill_50" data-name="Fill 50" d="M6.557,14.942H.268c-.227,0-.268-.021-.268-.267V12.743c0-.247.041-.267.268-.267H2.159V2.466H.268C.041,2.466,0,2.445,0,2.2V.267C0,.02.041,0,.268,0H6.557c.227,0,.268.02.268.267V2.2c0,.246-.041.267-.268.267H4.625v10.01H6.557c.227,0,.268.02.268.267v1.932c0,.246-.041.267-.268.267" transform="translate(329.272 24.895)" fill="#121125"/>
        <path id="Fill_51" data-name="Fill 51" d="M11.818,14.942H9.783c-.144,0-.2-.041-.2-.206L9.392,7.152c-.041-1.459.165-3.9.227-4.789a31.177,31.177,0,0,1-.8,3.433l-1.4,5.035c-.062.185-.123.185-.268.185H4.871c-.144,0-.2,0-.268-.185L3.206,5.8a32.272,32.272,0,0,1-.8-3.433c.062.884.288,3.33.247,4.768l-.2,7.605c0,.165-.063.206-.206.206H.2c-.144,0-.2-.041-.2-.206L.472.164C.472.061.513,0,.616,0H3.74a.163.163,0,0,1,.185.144L5.59,5.8a13.8,13.8,0,0,1,.432,3.473A13.308,13.308,0,0,1,6.433,5.8L8.1.144A.165.165,0,0,1,8.283,0h3.124c.1,0,.143.061.143.164l.473,14.572c0,.165-.061.206-.2.206" transform="translate(344.481 24.895)" fill="#121125"/>
        <path id="Fill_52" data-name="Fill 52" d="M6.557,14.942H.268c-.227,0-.268-.021-.268-.267V12.743c0-.247.041-.267.268-.267H2.159V2.466H.268C.041,2.466,0,2.445,0,2.2V.267C0,.02.041,0,.268,0H6.557c.227,0,.268.02.268.267V2.2c0,.246-.041.267-.268.267H4.625v10.01H6.557c.227,0,.268.02.268.267v1.932c0,.246-.041.267-.268.267" transform="translate(364.519 24.895)" fill="#121125"/>
        <path id="Fill_53" data-name="Fill 53" d="M8.078,14.942H.267c-.226,0-.267-.021-.267-.267V.267C0,.02.041,0,.267,0H7.995c.309,0,.35.041.35.287V2.2c0,.246-.041.267-.267.267H2.487V5.919h5.1c.226,0,.267.021.267.267V8.2c0,.247-.041.267-.267.267h-5.1v4.009H8.078c.226,0,.267.02.267.267v1.932c0,.246-.041.267-.267.267" transform="translate(379.83 24.895)" fill="#121125"/>
        <path id="Fill_54" data-name="Fill 54" d="M9.5,14.942H7.461c-.1,0-.144-.021-.2-.144l-3.6-7.05A15.273,15.273,0,0,1,2.076,3.391a27.588,27.588,0,0,1,.37,4.44l.021,6.844c0,.246-.041.267-.268.267H.267c-.226,0-.267-.021-.267-.267V.144C0,.061.02,0,.185,0H2.344c.1,0,.143.02.2.144l3.226,6.1a9.912,9.912,0,0,1,1.419,3.946L7.215.267C7.215.02,7.256,0,7.481,0H9.414c.226,0,.267.02.267.267V14.8c0,.082-.021.144-.185.144" transform="translate(396.703 24.895)" fill="#121125"/>
        <path id="Fill_55" data-name="Fill 55" d="M9.023,2.466H5.878V14.675c0,.247-.041.267-.267.267H3.679c-.226,0-.267-.02-.267-.267V2.466H.267C.041,2.466,0,2.445,0,2.2V.267C0,.02.041,0,.267,0H9.023c.226,0,.267.02.267.267V2.2c0,.246-.041.267-.267.267" transform="translate(414.07 24.894)" fill="#121125"/>
        <path id="Fill_56" data-name="Fill 56" d="M4.44,15.333a4.743,4.743,0,0,1-3.021-.986A4.158,4.158,0,0,1,0,10.955V4.378A4.157,4.157,0,0,1,1.418.987,4.743,4.743,0,0,1,4.44,0a4.705,4.705,0,0,1,3,.987A4.163,4.163,0,0,1,8.859,4.378v6.577a4.164,4.164,0,0,1-1.415,3.392A4.705,4.705,0,0,1,4.44,15.333Zm0-12.867c-1.327,0-1.973.625-1.973,1.912v6.577c0,1.287.645,1.912,1.973,1.912a1.713,1.713,0,0,0,1.953-1.912V4.378A1.713,1.713,0,0,0,4.44,2.466Z" transform="translate(431.106 24.75)" fill="#121125"/>
        <path id="Fill_57" data-name="Fill 57" d="M4.357,15.292C1.521,15.292,0,13.956,0,11.2V4.09C0,1.336,1.521,0,4.357,0,7.173,0,8.714,1.418,8.714,3.761c0,.144-.041.226-.184.247L6.474,4.3c-.143.02-.226-.041-.226-.206,0-1.007-.412-1.623-1.891-1.623s-1.87.616-1.87,1.623V11.2c0,1.007.391,1.624,1.87,1.624s1.891-.617,1.891-1.624c0-.164.083-.226.226-.206l2.056.288c.143.021.184.1.184.247,0,2.343-1.541,3.761-4.357,3.761" transform="translate(203.558 49.433)" fill="#121125"/>
        <path id="Fill_58" data-name="Fill 58" d="M4.44,15.333a4.743,4.743,0,0,1-3.021-.986A4.158,4.158,0,0,1,0,10.955V4.378A4.157,4.157,0,0,1,1.418.987,4.743,4.743,0,0,1,4.44,0a4.705,4.705,0,0,1,3,.987A4.163,4.163,0,0,1,8.859,4.378v6.577a4.164,4.164,0,0,1-1.415,3.392A4.705,4.705,0,0,1,4.44,15.333Zm0-12.867c-1.327,0-1.973.625-1.973,1.912v6.577c0,1.287.645,1.912,1.973,1.912a1.713,1.713,0,0,0,1.953-1.912V4.378A1.713,1.713,0,0,0,4.44,2.466Z" transform="translate(221.252 49.412)" fill="#121125"/>
        <path id="Fill_59" data-name="Fill 59" d="M0,.267C0,.02.041,0,.268,0H2.2c.227,0,.268.02.268.267V12.476H7.174c.266,0,.266.041.266.288v1.911c0,.247-.041.268-.266.268H.268c-.227,0-.268-.021-.268-.268Z" transform="translate(239.07 49.556)" fill="#121125"/>
        <path id="Fill_60" data-name="Fill 60" d="M12.228,14.943h-2.2c-.184,0-.246,0-.307-.206L8.611,11.078H3.679L2.61,14.737c-.062.206-.124.206-.308.206H.123c-.1,0-.123,0-.123-.041a.976.976,0,0,1,.061-.247L4.274.144C4.315,0,4.337,0,4.46,0H7.913c.124,0,.143,0,.185.144L12.27,14.655a.964.964,0,0,1,.062.247C12.332,14.943,12.293,14.943,12.228,14.943ZM6.185,1.336h0a10.951,10.951,0,0,1-.431,2.569L4.378,8.612h3.6L6.618,3.905a12.039,12.039,0,0,1-.432-2.569Z" transform="translate(253.128 49.556)" fill="#121125"/>
        <path id="Fill_61" data-name="Fill 61" d="M4.646,14.943H.268c-.228,0-.268-.02-.268-.267V.267C0,.02.041,0,.268,0H4.646a4.705,4.705,0,0,1,3,.987A4.163,4.163,0,0,1,9.065,4.378a3.022,3.022,0,0,1-1.787,3.1,3.127,3.127,0,0,1,1.787,3.083,4.466,4.466,0,0,1-1.138,3.106A4.38,4.38,0,0,1,4.646,14.943ZM2.467,8.715v3.761H4.646A1.712,1.712,0,0,0,6.6,10.565c0-1.245-.639-1.85-1.952-1.85Zm0-6.249V6.228H4.646c1.314,0,1.952-.605,1.952-1.85A1.713,1.713,0,0,0,4.646,2.466Z" transform="translate(273.33 49.556)" fill="#121125"/>
        <path id="Fill_62" data-name="Fill 62" d="M4.44,15.333a4.743,4.743,0,0,1-3.021-.986A4.158,4.158,0,0,1,0,10.955V4.378A4.157,4.157,0,0,1,1.418.987,4.743,4.743,0,0,1,4.44,0a4.705,4.705,0,0,1,3,.987A4.163,4.163,0,0,1,8.859,4.378v6.577a4.164,4.164,0,0,1-1.415,3.392A4.705,4.705,0,0,1,4.44,15.333Zm0-12.867c-1.327,0-1.973.625-1.973,1.912v6.577c0,1.287.645,1.912,1.973,1.912a1.713,1.713,0,0,0,1.953-1.912V4.378A1.713,1.713,0,0,0,4.44,2.466Z" transform="translate(291.169 49.412)" fill="#121125"/>
        <path id="Fill_63" data-name="Fill 63" d="M9.435,14.943h-2.2c-.266,0-.287-.038-.388-.222l0-.005-2.8-5.673H2.467v5.632c0,.248-.04.267-.267.267H.268c-.228,0-.268-.02-.268-.267V.267C0,.02.041,0,.268,0H4.687A4.648,4.648,0,0,1,7.714,1,4.36,4.36,0,0,1,9.106,4.5c0,2.094-.837,3.5-2.488,4.172l3,6.022,0,.01a.321.321,0,0,1,.036.093C9.661,14.886,9.572,14.943,9.435,14.943ZM2.467,2.466v4.09h2.22C6.033,6.556,6.66,5.9,6.66,4.5A1.808,1.808,0,0,0,4.687,2.466Z" transform="translate(308.987 49.556)" fill="#121125"/>
        <path id="Fill_64" data-name="Fill 64" d="M12.228,14.943h-2.2c-.184,0-.246,0-.307-.206L8.611,11.078H3.679L2.61,14.737c-.062.206-.124.206-.308.206H.123c-.1,0-.123,0-.123-.041a.976.976,0,0,1,.061-.247L4.274.144C4.315,0,4.337,0,4.46,0H7.913c.124,0,.143,0,.185.144L12.27,14.655a.964.964,0,0,1,.062.247C12.332,14.943,12.293,14.943,12.228,14.943ZM6.185,1.336h0a10.951,10.951,0,0,1-.431,2.569L4.378,8.612h3.6L6.618,3.905a12.039,12.039,0,0,1-.432-2.569Z" transform="translate(325.101 49.556)" fill="#121125"/>
        <path id="Fill_65" data-name="Fill 65" d="M9.023,2.466H5.878V14.675c0,.247-.041.268-.267.268H3.679c-.226,0-.267-.021-.267-.268V2.466H.267C.041,2.466,0,2.445,0,2.2V.267C0,.02.041,0,.267,0H9.023c.226,0,.267.02.267.267V2.2c0,.246-.041.267-.267.267" transform="translate(343.391 49.556)" fill="#121125"/>
        <path id="Fill_66" data-name="Fill 66" d="M6.557,14.943H.268c-.227,0-.268-.021-.268-.268V12.744c0-.247.041-.268.268-.268H2.159V2.466H.268C.041,2.466,0,2.446,0,2.2V.267C0,.021.041,0,.268,0H6.557c.227,0,.268.021.268.267V2.2c0,.247-.041.267-.268.267H4.625v10.01H6.557c.227,0,.268.021.268.268v1.931c0,.247-.041.268-.268.268" transform="translate(359.956 49.556)" fill="#121125"/>
        <path id="Fill_67" data-name="Fill 67" d="M7.563,14.778c-.041.165-.082.165-.226.165H4.459c-.143,0-.184,0-.225-.165L.02.247A.452.452,0,0,1,0,.123C0,.041.061,0,.2,0H2.24c.247,0,.267.041.329.226l2.856,10.01a14.1,14.1,0,0,1,.452,2.692,13.485,13.485,0,0,1,.453-2.671L9.228.226C9.29.041,9.31,0,9.557,0h2.034c.145,0,.206.041.206.123a.452.452,0,0,1-.02.124Z" transform="translate(373.87 49.556)" fill="#121125"/>
        <path id="Fill_68" data-name="Fill 68" d="M4.44,15.333a4.743,4.743,0,0,1-3.021-.986A4.158,4.158,0,0,1,0,10.955V4.378A4.157,4.157,0,0,1,1.418.987,4.743,4.743,0,0,1,4.44,0a4.705,4.705,0,0,1,3,.987A4.163,4.163,0,0,1,8.859,4.378v6.577a4.164,4.164,0,0,1-1.415,3.392A4.705,4.705,0,0,1,4.44,15.333Zm0-12.867c-1.327,0-1.973.625-1.973,1.912v6.577c0,1.287.645,1.912,1.973,1.912a1.713,1.713,0,0,0,1.953-1.912V4.378A1.713,1.713,0,0,0,4.44,2.466Z" transform="translate(392.818 49.412)" fill="#121125"/>
      </g>
    </g>
  </g>
</svg>
